internal/fs/utils.js:220
    throw err;
    ^

Error: ENOENT: no such file or directory, open 'server.crt'
    at Object.openSync (fs.js:440:3)
    at Object.readFileSync (fs.js:342:35)
    at Object.<anonymous> (/opt/scheduling_app/scheduling_app.js:16:11)
    at Module._compile (internal/modules/cjs/loader.js:959:30)
    at Object.Module._extensions..js (internal/modules/cjs/loader.js:995:10)
    at Module.load (internal/modules/cjs/loader.js:815:32)
    at Function.Module._load (internal/modules/cjs/loader.js:727:14)
    at Function.Module.runMain (internal/modules/cjs/loader.js:1047:10)
    at internal/main/run_main_module.js:17:11 {
  errno: -2,
  syscall: 'open',
  code: 'ENOENT',
  path: 'server.crt'
}
internal/modules/cjs/loader.js:800
    throw err;
    ^

Error: Cannot find module '/opt/scheduling_app/http-scheduling_app.js'
    at Function.Module._resolveFilename (internal/modules/cjs/loader.js:797:15)
    at Function.Module._load (internal/modules/cjs/loader.js:690:27)
    at Function.Module.runMain (internal/modules/cjs/loader.js:1047:10)
    at internal/main/run_main_module.js:17:11 {
  code: 'MODULE_NOT_FOUND',
  requireStack: []
}
