{
	"database": {
		"host": "192.168.1.202",
		"user": "scheduler",
		"port": "5432",
		"database": "scheduler",
		"password": "..."
	},
	"files": {
		"create_database": "sql/create_sched_database.sql",
		"drop_database": "sql/drop_sched_database.sql",

		"create_user_confirmation_table": "sql/create_user_confirmation_table.sql",
		"set_password": "sql/set_user_password.sql",
		"drop_user": "sql/drop_user.sql",
		"scheduler_permissions": "sql/scheduler_permissions.sql",
		"create_schema": "sql/create_schema.sql",

		"create_user": "sql/create_user.sql",
		"create_user_table": "sql/create_user_table.sql",

		"create_user_function": "sql/create_user_function.sql",
		"create_random_range_function": "sql/create_random_range_function.sql",
		"create_random_string_function": "sql/create_random_string_function.sql",
		"create_user_confirmation_function": "sql/create_confirm_user_function.sql",
		"create_get_user_salt_function": "sql/create_get_user_salt_function.sql",
		"validate_user": "sql/create_validate_user_function.sql",

		"new_user_confirm_return_type": "sql/create_new_user_confirmation_type.sql",
		"confirm_user_return_type": "sql/confirm_user_return_type.sql",
		"integer_user_result": "sql/create_integer_user_result_type.sql"
	},
	"logging": {
		"file_name": "logs/create_database.log",
		"format": "%(asctime)s %(message)s"
	}
}